{
    "coord": {
        "lon": 2.35,
        "lat": 48.85
    },
    "weather": [
                {
                "id": 741,
                "main": "Fog",
                "description": "fog",
                "icon": "50d"
                },
                {
                "id": 701,
                "main": "Mist",
                "description": "mist",
                "icon": "50d"
                }
                ],
    "base": "stations",
    "main": {
        "temp": 5.39,
        "pressure": 1026,
        "humidity": 100,
        "temp_min": 5,
        "temp_max": 6
    },
    "visibility": 550,
    "clouds": {
        "all": 90
    },
    "dt": 1481383800,
    "sys": {
        "type": 1,
        "id": 5615,
        "message": 0.0407,
        "country": "FR",
        "sunrise": 1481355233,
        "sunset": 1481385226
    },
    "id": 2988507,
    "name": "Paris",
    "cod": 200
}
